%YAML 1.1
%TAG !u! tag:unity3d.com,2011:
--- !u!1045 &1
EditorBuildSettings:
  m_ObjectHideFlags: 0
  serializedVersion: 2
  m_Scenes:
  - enabled: 1
    path: Assets/Scenes/SampleScene.unity
    guid: 2cda990e2423bbf4892e6590ba056729
  m_configObjects:
    com.unity.adaptiveperformance.google.android.provider_settings: {fileID: 11400000, guid: 266156a7c59db08428cfd5d1bb724624, type: 2}
    com.unity.adaptiveperformance.loader_settings: {fileID: 11400000, guid: 364836615c31faf4693ceddccea75eb7, type: 2}
    com.unity.adaptiveperformance.samsung.android.provider_settings: {fileID: 11400000, guid: 311074e6877335648829bc48345d8ad8, type: 2}
    com.unity.adaptiveperformance.simulator.provider_settings: {fileID: 11400000, guid: a4621ebf108161247a16ce06d33992c2, type: 2}
    com.unity.input.settings: {fileID: 11400000, guid: ee3cdf8c3b20b834bb02ef8c9884cb64, type: 2}
